…
    ## Warning: `cols` is now required when using unnest().
    ## Please use `cols = c(prop_tests)`

    ## Adding missing grouping variables: `city_state`

``` r
result_df
```

    ## # A tibble: 50 × 4
    ## # Groups:   city_state [50]
    ##    city_state     estimate conf.low conf.high
    ##    <chr>             <dbl>    <dbl>     <dbl>
    ##  1 Albuquerque,NM    0.386    0.337     0.438
    ##  2 Atlanta,GA        0.383    0.353     0.415
    ##  3 Baltimore,MD      0.646    0.628     0.663
    ##  4 Baton Rouge,LA    0.462    0.414     0.511
    ##  5 Birmingham,AL     0.434    0.399     0.469
    ##  6 Boston,MA         0.505    0.465     0.545
    ##  7 Buffalo,NY        0.612    0.569     0.654
    ##  8 Charlotte,NC      0.300    0.266     0.336
    ##  9 Chicago,IL        0.736    0.724     0.747
    ## 10 Cincinnati,OH     0.445    0.408     0.483
    ## # … with 40 more rows
…
    i = i+1
  }

  bind_rows(output)
}
```

#### Generate 5000 datasets from the model mu = 0, sigma = 5, n = 30, and get the estimate and stats from each test

``` r
sim_stat(0,5,30)
```

    ## # A tibble: 5,000 × 2
    ##    estimate p.value
    ##       <dbl>   <dbl>
    ##  1   -1.69   0.0704
    ##  2    0.552  0.463 
    ##  3    0.413  0.483 
    ##  4    0.354  0.715 
    ##  5    0.785  0.324 
    ##  6   -0.646  0.400 
    ##  7   -0.914  0.318 
    ##  8    0.479  0.566 
    ##  9   -0.190  0.835 
    ## 10   -0.974  0.274 
    ## # … with 4,990 more rows
…
